Copyright 1986-2019 Xilinx, Inc. All Rights Reserved.
------------------------------------------------------------------------------------
| Tool Version : Vivado v.2019.2 (win64) Build 2708876 Wed Nov  6 21:40:23 MST 2019
| Date         : Wed Jan 13 09:40:26 2021
| Host         : DESKTOP-I3J5CUF running 64-bit major release  (build 9200)
| Command      : report_control_sets -verbose -file main_control_sets_placed.rpt
| Design       : main
| Device       : xc7a100t
------------------------------------------------------------------------------------

Control Set Information

Table of Contents
-----------------
1. Summary
2. Histogram
3. Flip-Flop Distribution
4. Detailed Control Set Information

1. Summary
----------

+----------------------------------------------------------+-------+
|                          Status                          | Count |
+----------------------------------------------------------+-------+
| Total control sets                                       |     8 |
|    Minimum number of control sets                        |     8 |
|    Addition due to synthesis replication                 |     0 |
|    Addition due to physical synthesis replication        |     0 |
| Unused register locations in slices containing registers |    11 |
+----------------------------------------------------------+-------+
* Control sets can be merged at opt_design using control_set_merge or merge_equivalent_drivers
** Run report_qor_suggestions for automated merging and remapping suggestions


2. Histogram
------------

+--------------------+-------+
|       Fanout       | Count |
+--------------------+-------+
| Total control sets |     8 |
| >= 0 to < 4        |     0 |
| >= 4 to < 6        |     1 |
| >= 6 to < 8        |     0 |
| >= 8 to < 10       |     1 |
| >= 10 to < 12      |     0 |
| >= 12 to < 14      |     0 |
| >= 14 to < 16      |     0 |
| >= 16              |     6 |
+--------------------+-------+
* Control sets can be remapped at either synth_design or opt_design


3. Flip-Flop Distribution
-------------------------

+--------------+-----------------------+------------------------+-----------------+--------------+
| Clock Enable | Synchronous Set/Reset | Asynchronous Set/Reset | Total Registers | Total Slices |
+--------------+-----------------------+------------------------+-----------------+--------------+
| No           | No                    | No                     |              68 |           23 |
| No           | No                    | Yes                    |               0 |            0 |
| No           | Yes                   | No                     |              20 |            6 |
| Yes          | No                    | No                     |               8 |            2 |
| Yes          | No                    | Yes                    |               0 |            0 |
| Yes          | Yes                   | No                     |              93 |           26 |
+--------------+-----------------------+------------------------+-----------------+--------------+


4. Detailed Control Set Information
-----------------------------------

+----------------+-------------------------------------------------+------------------------------+------------------+----------------+
|  Clock Signal  |                  Enable Signal                  |       Set/Reset Signal       | Slice Load Count | Bel Load Count |
+----------------+-------------------------------------------------+------------------------------+------------------+----------------+
|  Clk_IBUF_BUFG |                                                 |                              |                2 |              4 |
|  Clk_IBUF_BUFG | alu/mul/U_CTRL/FSM_onehot_next_state[7]_i_1_n_1 |                              |                2 |              8 |
|  Clk_IBUF_BUFG |                                                 | display/Num[19]_i_1_n_1      |                6 |             20 |
|  Clk_IBUF_BUFG | alu/mul/U_CTRL/C[30]_i_2_n_1                    | alu/mul/U_CTRL/C[30]_i_1_n_1 |                9 |             30 |
|  Clk_IBUF_BUFG | alu/mul/U_CTRL/ShrAQ                            | alu/mul/U_CTRL/RstA          |                5 |             31 |
|  Clk_IBUF_BUFG | alu/mul/U_CTRL/E[0]                             | alu/mul/U_CTRL/RstA          |               12 |             32 |
|  n_0_38_BUFG   |                                                 |                              |               12 |             32 |
|  Term          |                                                 |                              |                9 |             32 |
+----------------+-------------------------------------------------+------------------------------+------------------+----------------+


