# compile vhdl design source files
vhdl xil_defaultlib  \
"../../../../ALU_project.srcs/sources_1/imports/new/ADDN.vhd" \
"../../../../ALU_project.srcs/sources_1/imports/new/Sumator2biti.vhd" \
"../../../../ALU_project.srcs/sources_1/imports/new/Sat.vhd" \
"../../../../ALU_project.srcs/sources_1/imports/new/UC.vhd" \
"../../../../ALU_project.srcs/sources_1/imports/new/FDN.vhd" \
"../../../../ALU_project.srcs/sources_1/imports/new/SSRN.vhd" \
"../../../../ALU_project.srcs/sources_1/imports/new/FD.vhd" \
"../../../../ALU_project.srcs/sources_1/imports/new/Inmultire.vhd" \
"../../../../ALU_project.srcs/sources_1/new/And32bit.vhd" \
"../../../../ALU_project.srcs/sources_1/new/Or32bit.vhd" \
"../../../../ALU_project.srcs/sources_1/new/LeftShift32bit.vhd" \
"../../../../ALU_project.srcs/sources_1/new/RightShift32Bit.vhd" \
"../../../../ALU_project.srcs/sources_1/new/Alu32.vhd" \
"../../../../ALU_project.srcs/sim_1/new/Alu_tb.vhd" \

# Do not sort compile order
nosort
